<시나리오>


-- 신규사원 --
계정 : 이도훈(mid:2) & 시크릿모드 : 김진호(mid : 1)
1. 신입사원 입사 -> 말만하고 -> 일괄등록('인사팀장' 아이디)으로 신입사원 입사 
-> 전자결재를 통한 일괄등록은 '인사팀장만 가능' 사원결제 ('CEO'가 결재가능) 
-> 신규사원 등록 관리 

계정 : 김진호(mid:1)
2. 조직책임자 - 결재내역에서 결재대기 , 결재내역 확인(내용 보여주기)

계정 : 신규사원(mid: )
3. 신규사원으로 로그인 (비밀번호 변경) -> 인적사항 , 경력정보 , 인사평가 설명  -> 인적사항 추가 
>>>>>>>>>>>>>>>>>>>>

계정 : 김진호(mid:221)
-- 기존사원 --  -> 1년차가 넘어가고 급여를 꼬박꼬박받았으며 , 근태를 완벽하게 한 성실한 사원
 , 인사발령을 받았어야하고 , 인사평가또한 몇번 받아야함  -> 성실한 사원  -> 주 52시간을 넘어야함 (야특근신청이 불가능함)
 , 휴가이력 넣어놓기 

계정 : 김진호(mid:221)
4. 사원에서 근태 보여주기  -> 일일 근태등록(IP 설명)  , 월근태현황  , 근태신청 
   -> 근태신청을한다(52시간 보여주기)  -> 휴가관리 들어가서 설명

5. 사원 셀프서비스 급여조회 -> 급여명세서 & 인쇄 가능 보여주고 /

****** 권한 >> 담당자 설정 <<< *****
계정 : 송기준(mid:46)
6. 근태/급여 관리 보여주기
 - 근태 : 월근태현황 (!!!!!!!검색 한번만 누르기!!!!!!!!)
 - 급여 : 
>>>>>>>>>>>>>>>>>>>>

7. 인사계획, 인사발령, 인사평가
 - 인사계획 : 내년 계획을 수립하고 저장할 수 있음 -> 전자결재를 통해 확정할 수 있음
 - 인사발령 : 부서이동, 진급, 조직책임자 임명 등의 인사발령을 모두 처리, 내역 확인 -> 김진호씨를 승진 & 저장 -> 전자결재 요청!
 - 인사평가 : 
   1. 인사평가 계획을 수립한다.(계정: 박종현, mid:6) (양방향/단방향에 대한 설명) -> 전자결재
   2. 조직책임자(계정:권연주, mid:3): 평가 계획을 작성한다.
---------> 연초가 끝나면, 연말에...
   3. 사원(계정:김진호, mid:221) : 평가 내역을 보고 피평가자 의견을 작성한다.
   4. 조직책임자(계정:권연주, mid:3) : 피평가자 의견을 보고 평가의견을 작성 및 점수를 채점!
   5. 전자결재 요청!

계정 : 이도훈(mid:2)
8. 사원조회, 조직조회, 조직도 열람 등 (인사관리에 대한 설명)
>>>>>>>>>>>>>>>>>>>>

9. 셀프서비스: 제증명신청, 급여관리, 퇴직금 조회와 연말정산(+급여관리에 정산관리에서 확인이 가능함 언급)
 + 사원게시판 

10. 퇴사시키기 : 신청 및 결재요청
 - 결재하는동안 퇴직금 산정, 퇴직사원처리 등 보여주고..
 - 퇴직이 완료되면 더이상 로그인 불가 보여주기!

계정 : 김진호(mid:1)
11. 시스템관리 : 기초환경설정, 기준정보, 권한, 통계자료에 대한 설명









